…
``` r
## Check Working Directory Path
getwd()
```

    ## [1] "C:/Users/Rebecca/OneDrive/Desktop/ST 558/Repos/Project2"

``` r
## Read in Raw Data Using Relative Path
rawData <- read_csv(file = "./project2_rawdata.csv") 
rawData
```

    ## # A tibble: 39,644 x 61
    ##    url        timedelta n_tokens_title n_tokens_content n_unique_tokens
    ##    <chr>          <dbl>          <dbl>            <dbl>           <dbl>
    ##  1 http://ma~       731             12              219           0.664
    ##  2 http://ma~       731              9              255           0.605
    ##  3 http://ma~       731              9              211           0.575
    ##  4 http://ma~       731              9              531           0.504
    ##  5 http://ma~       731             13             1072           0.416
    ##  6 http://ma~       731             10              370           0.560
    ##  7 http://ma~       731              8              960           0.418
    ##  8 http://ma~       731             12              989           0.434
    ##  9 http://ma~       731             11               97           0.670
    ## 10 http://ma~       731             10              231           0.636
    ## # ... with 39,634 more rows, and 56 more variables:
    ## #   n_non_stop_words <dbl>, n_non_stop_unique_tokens <dbl>,
    ## #   num_hrefs <dbl>, num_self_hrefs <dbl>, num_imgs <dbl>,
    ## #   num_videos <dbl>, average_token_length <dbl>, num_keywords <dbl>,
    ## #   data_channel_is_lifestyle <dbl>,
    ## #   data_channel_is_entertainment <dbl>, data_channel_is_bus <dbl>,
    ## #   data_channel_is_socmed <dbl>, data_channel_is_tech <dbl>, ...
…
## Subset Data for Respective Data Channel
subsetData <- rawDataNew %>% filter(data_channel == params$data_channel)

## Create Training and Test Data Sets
set.seed(500)
trainIndex <- createDataPartition(subsetData$shares, p = 0.7, list = FALSE)

trainData <- subsetData[trainIndex,]
testData <- subsetData[-trainIndex,]

trainData
```

    ## # A tibble: 10,195 x 62
    ##    url        timedelta n_tokens_title n_tokens_content n_unique_tokens
    ##    <chr>          <dbl>          <dbl>            <dbl>           <dbl>
    ##  1 http://ma~       731             10              231           0.636
    ##  2 http://ma~       731              9             1248           0.490
    ##  3 http://ma~       731              9              274           0.609
    ##  4 http://ma~       731              9              285           0.744
    ##  5 http://ma~       731              8              259           0.563
    ##  6 http://ma~       731             12              682           0.460
    ##  7 http://ma~       731             11              125           0.675
    ##  8 http://ma~       731             10              597           0.532
    ##  9 http://ma~       731             11              799           0.504
    ## 10 http://ma~       731              9              474           0.609
    ## # ... with 10,185 more rows, and 57 more variables:
    ## #   n_non_stop_words <dbl>, n_non_stop_unique_tokens <dbl>,
    ## #   num_hrefs <dbl>, num_self_hrefs <dbl>, num_imgs <dbl>,
    ## #   num_videos <dbl>, average_token_length <dbl>, num_keywords <dbl>,
    ## #   data_channel_is_lifestyle <dbl>,
    ## #   data_channel_is_entertainment <dbl>, data_channel_is_bus <dbl>,
    ## #   data_channel_is_socmed <dbl>, data_channel_is_tech <dbl>, ...

``` r
testData
```

    ## # A tibble: 4,366 x 62
    ##    url        timedelta n_tokens_title n_tokens_content n_unique_tokens
    ##    <chr>          <dbl>          <dbl>            <dbl>           <dbl>
    ##  1 http://ma~       731              8             1118           0.512
    ##  2 http://ma~       731              9              391           0.510
    ##  3 http://ma~       731              9              443           0.467
    ##  4 http://ma~       729              7             1174           0.458
    ##  5 http://ma~       729              9              167           0.681
    ##  6 http://ma~       729             11              825           0.477
    ##  7 http://ma~       729              7              105           0.819
    ##  8 http://ma~       729             12              537           0.538
    ##  9 http://ma~       729             10              138           0.754
    ## 10 http://ma~       729             11              459           0.563
    ## # ... with 4,356 more rows, and 57 more variables:
    ## #   n_non_stop_words <dbl>, n_non_stop_unique_tokens <dbl>,
    ## #   num_hrefs <dbl>, num_self_hrefs <dbl>, num_imgs <dbl>,
    ## #   num_videos <dbl>, average_token_length <dbl>, num_keywords <dbl>,
    ## #   data_channel_is_lifestyle <dbl>,
    ## #   data_channel_is_entertainment <dbl>, data_channel_is_bus <dbl>,
    ## #   data_channel_is_socmed <dbl>, data_channel_is_tech <dbl>, ...
…
#Create New variable using weekday_is_() variables
trainDataNew <- trainData %>% mutate(day_of_the_week =   if_else(weekday_is_monday == 1, "Monday",
       if_else(weekday_is_tuesday == 1, "Tuesday",
               if_else(weekday_is_wednesday == 1, "Wednesday",
                      if_else(weekday_is_thursday == 1, "Thursday",
                              if_else(weekday_is_friday == 1, "Friday",
                                      if_else(weekday_is_saturday == 1, "Saturday", "Sunday"
                                              ))))))) 
trainDataNew
```

    ## # A tibble: 10,195 x 64
    ##    url        timedelta n_tokens_title n_tokens_content n_unique_tokens
    ##    <chr>          <dbl>          <dbl>            <dbl>           <dbl>
    ##  1 http://ma~       731             10              231           0.636
    ##  2 http://ma~       731              9             1248           0.490
    ##  3 http://ma~       731              9              274           0.609
    ##  4 http://ma~       731              9              285           0.744
    ##  5 http://ma~       731              8              259           0.563
    ##  6 http://ma~       731             12              682           0.460
    ##  7 http://ma~       731             11              125           0.675
    ##  8 http://ma~       731             10              597           0.532
    ##  9 http://ma~       731             11              799           0.504
    ## 10 http://ma~       731              9              474           0.609
    ## # ... with 10,185 more rows, and 59 more variables:
    ## #   n_non_stop_words <dbl>, n_non_stop_unique_tokens <dbl>,
    ## #   num_hrefs <dbl>, num_self_hrefs <dbl>, num_imgs <dbl>,
    ## #   num_videos <dbl>, average_token_length <dbl>, num_keywords <dbl>,
    ## #   data_channel_is_lifestyle <dbl>,
    ## #   data_channel_is_entertainment <dbl>, data_channel_is_bus <dbl>,
    ## #   data_channel_is_socmed <dbl>, data_channel_is_tech <dbl>, ...
…
